llamadas 911
…
grafico1 <- ggplot(grafico1_data, aes(x = mes, y = promedio_incidentes, color = categoria_incidente_c4)) +
  geom_line() +
  facet_wrap(~.data[[nombre_alcaldia]], scales = "free_y") +
  labs(
    title = "Promedio de incidentes por categoría, mes y alcaldía",
    x = "Mes", y = "Promedio de incidentes"
  ) +
  scale_x_date(date_breaks = "4 months", date_labels = "%b %Y") +
  theme_minimal() +
  theme(axis.text.x = element_text(angle = 45, hjust = 1))
print(grafico1_data)

## # A tibble: 5,059 × 4
##    mes        alcaldia_cierre       categoria_incidente_c4 promedio_incidentes
##    <date>     <chr>                 <chr>                                <dbl>
##  1 2020-03-01 CUAUHTEMOC            Servicios                                1
##  2 2020-03-01 IZTAPALAPA            Denuncia                                 1
##  3 2020-04-01 ALVARO OBREGON        Denuncia                                 1
##  4 2020-04-01 ALVARO OBREGON        Servicios                                1
##  5 2020-04-01 BENITO JUAREZ         Denuncia                                 1
##  6 2020-04-01 CUAJIMALPA DE MORELOS Denuncia                                 1
##  7 2020-04-01 CUAUHTEMOC            Denuncia                                 1
##  8 2020-04-01 CUAUHTEMOC            Servicios                                1
##  9 2020-04-01 IZTACALCO             Servicios                                1
## 10 2020-04-01 IZTAPALAPA            Denuncia                                 1
## # ℹ 5,049 more rows
…
